<?xml version='1.0' encoding='UTF-8'?>
<!-- Created with Inkscape (http://www.inkscape.org/) and export_objects.py -->
<svg xmlns:cc="http://creativecommons.org/ns#" xmlns:dc="http://purl.org/dc/elements/1.1/" xmlns:inkscape="http://www.inkscape.org/namespaces/inkscape" xmlns:rdf="http://www.w3.org/1999/02/22-rdf-syntax-ns#" xmlns:sodipodi="http://sodipodi.sourceforge.net/DTD/sodipodi-0.dtd" xmlns:xlink="http://www.w3.org/1999/xlink" xmlns="http://www.w3.org/2000/svg" version="1.1" id="svg1" width="16" height="16" viewBox="0 0 16 16" sodipodi:docname="dialog-input-devices-symbolic.svg"><sodipodi:namedview objecttolerance="10" gridtolerance="10" guidetolerance="10" id="namedview" showgrid="true" inkscape:zoom="0.6002936" inkscape:cx="732.67439" inkscape:cy="-567.94603" inkscape:window-width="1920" inkscape:window-height="1016" inkscape:window-x="0" inkscape:window-y="27" inkscape:window-maximized="1" inkscape:current-layer="layer1">
    <inkscape:grid type="xygrid" id="grid"/>
  </sodipodi:namedview>
  <g transform="matrix(0.999998,0,0,0.999997,-14.999934,-627.36017)" inkscape:label="00006" id="dialog-input-devices">
      <path inkscape:connector-curvature="0" id="rect13775" d="m 15,627.36218 h 16 v 16 H 15 Z" style="opacity:1"/>
      <path style="opacity:1" d="m 27.02642,627.3622 c 0,0 -1.82308,3.7834 -2.95085,6 l -0.47633,1 v 1 l -0.59924,1 h 1 l 0.76701,-1 0.79899,-0.4219 0.12292,-0.5781 3.3267,-7 z" id="path13779" inkscape:connector-curvature="0"/>
      <path style="opacity:1" d="m 16.22651,635.3887 c -0.66548,-10e-4 -1.22328,0.2772 -1.22651,0.9735 0.013,0.5392 0.0055,1.448 0,2 l 2.01592,-0.01 -4e-5,-2.9579 -0.79042,-0.005 z m 1.78413,0.006 v 2.9579 L 20,638.3626 c 0.0102,-0.5542 -0.0047,-1.467 0,-2 9.9e-4,-0.6962 -0.48323,-0.9551 -1.14876,-0.9585 l -0.84056,-0.009 z m -2.98435,3.9436 c -0.009,0.6024 -0.0261,0.8269 -0.0263,1.3814 -0.006,1.4568 1.10867,2.6353 2.50111,2.6425 1.39242,0.007 2.51892,-1.1599 2.52578,-2.6167 -0.0253,-0.6059 -0.0329,-0.8326 -0.0267,-1.4072 z" id="rect7357-4" inkscape:connector-curvature="0" inkscape:transform-center-x="-0.2450515" inkscape:transform-center-y="-0.4456815"/>
      <path style="opacity:1" d="m 18,630.3622 -1,4 h 1.40625 c 0.13609,6e-4 -0.01581,0 1.0625,0 l 0.53125,-2 h 3 l 1,-2 z m 11,0 -1,2 0.60938,6 H 21 v 2 h 10 l -1,-10 z" id="path13869" inkscape:connector-curvature="0"/>
    </g>
    </svg>
